from,to,value
0,12,1231.9128988160046
12,0,1231.9128988160046
0,31,1039.9638006194712
31,0,1039.9638006194712
0,44,1490.3920793809614
44,0,1490.3920793809614
0,47,1469.7684875801865
47,0,1469.7684875801865
0,58,1497.8925315794972
58,0,1497.8925315794972
8,11,360.8929771402388
11,8,360.8929771402388
8,7,1007.6974715423007
7,8,1007.6974715423007
8,13,593.3118197140678
13,8,593.3118197140678
8,14,766.7791765853501
14,8,766.7791765853501
8,17,1264.365209038814
17,8,1264.365209038814
8,28,1249.1364512957632
28,8,1249.1364512957632
8,33,1093.5897718904912
33,8,1093.5897718904912
8,39,335.5252025227511
39,8,335.5252025227511
8,50,86.52174550968232
50,8,86.52174550968232
8,56,906.8158930748668
56,8,906.8158930748668
9,12,1038.4060792173252
12,9,1038.4060792173252
9,31,732.7703198297029
31,9,732.7703198297029
9,44,752.8478314756792
44,9,752.8478314756792
9,47,469.9954510126524
47,9,469.9954510126524
9,58,677.6918512147788
58,9,677.6918512147788
10,12,1407.3266573270098
12,10,1407.3266573270098
10,29,1135.696402486276
29,10,1135.696402486276
10,19,543.262779999864
19,10,543.262779999864
10,23,1075.0302823991392
23,10,1075.0302823991392
10,27,1480.851359077699
27,10,1480.851359077699
10,37,699.9802469700446
37,10,699.9802469700446
10,48,591.2793586620011
48,10,591.2793586620011
10,55,462.87674638767584
55,10,462.87674638767584
11,8,360.8929771402388
8,11,360.8929771402388
11,7,1067.9757271898109
7,11,1067.9757271898109
11,13,673.3182474741533
13,11,673.3182474741533
11,14,1017.0179712118489
14,11,1017.0179712118489
11,17,1385.3426657139917
17,11,1385.3426657139917
11,33,830.4064922476564
33,11,830.4064922476564
11,39,396.10629954670543
39,11,396.10629954670543
11,50,275.959604474025
50,11,275.959604474025
11,56,1244.2926748231469
56,11,1244.2926748231469
7,8,1007.6974715423007
8,7,1007.6974715423007
7,11,1067.9757271898109
11,7,1067.9757271898109
7,17,354.5540129110607
17,7,354.5540129110607
7,27,1227.596634842019
27,7,1227.596634842019
7,39,702.9435097872175
39,7,702.9435097872175
7,45,1186.0168492152588
45,7,1186.0168492152588
7,50,996.3211333575085
50,7,996.3211333575085
7,59,1167.1477145642282
59,7,1167.1477145642282
12,0,1231.9128988160046
0,12,1231.9128988160046
12,9,1038.4060792173252
9,12,1038.4060792173252
12,10,1407.3266573270098
10,12,1407.3266573270098
12,31,521.1127849649046
31,12,521.1127849649046
12,37,1467.682813582619
37,12,1467.682813582619
12,44,1434.7161069940435
44,12,1434.7161069940435
12,47,573.2166707263056
47,12,573.2166707263056
12,58,1382.1356281600151
58,12,1382.1356281600151
29,10,1135.696402486276
10,29,1135.696402486276
29,19,1474.6646825719326
19,29,1474.6646825719326
29,18,726.0674546787209
18,29,726.0674546787209
29,23,254.621667247101
23,29,254.621667247101
29,27,605.0789698082275
27,29,605.0789698082275
29,37,928.4251543299802
37,29,928.4251543299802
29,45,852.3737184466746
45,29,852.3737184466746
29,48,1208.9085939169477
48,29,1208.9085939169477
29,55,1425.8064654118998
55,29,1425.8064654118998
29,59,534.2066054366869
59,29,534.2066054366869
13,8,593.3118197140678
8,13,593.3118197140678
13,11,673.3182474741533
11,13,673.3182474741533
13,14,479.4943609751134
14,13,479.4943609751134
13,28,1094.8146058739776
28,13,1094.8146058739776
13,33,843.7107146252885
33,13,843.7107146252885
13,39,909.0958136414569
39,13,909.0958136414569
13,50,608.0714738712743
50,13,608.0714738712743
13,56,891.9780649039968
56,13,891.9780649039968
14,8,766.7791765853501
8,14,766.7791765853501
14,11,1017.0179712118489
11,14,1017.0179712118489
14,13,479.4943609751134
13,14,479.4943609751134
14,28,615.324357104412
28,14,615.324357104412
14,33,1320.0860116255599
33,14,1320.0860116255599
14,39,1095.2961070965189
39,14,1095.2961070965189
14,38,1155.0162989042205
38,14,1155.0162989042205
14,50,829.653189761813
50,14,829.653189761813
14,56,463.00861153150043
56,14,463.00861153150043
17,8,1264.365209038814
8,17,1264.365209038814
17,11,1385.3426657139917
11,17,1385.3426657139917
17,7,354.5540129110607
7,17,354.5540129110607
17,27,1242.1414864389747
27,17,1242.1414864389747
17,39,999.0749213670406
39,17,999.0749213670406
17,45,945.7247289968942
45,17,945.7247289968942
17,50,1270.9901481823574
50,17,1270.9901481823574
17,59,1065.4530875348319
59,17,1065.4530875348319
19,10,543.262779999864
10,19,543.262779999864
19,29,1474.6646825719326
29,19,1474.6646825719326
19,23,1491.0490258913942
23,19,1491.0490258913942
19,37,1241.1457068248744
37,19,1241.1457068248744
19,48,355.06276849091915
48,19,355.06276849091915
19,55,81.67668947863076
55,19,81.67668947863076
18,29,726.0674546787209
29,18,726.0674546787209
18,23,633.8317706863895
23,18,633.8317706863895
18,27,1143.251978466041
27,18,1143.251978466041
18,37,1187.6863672450677
37,18,1187.6863672450677
18,45,611.0043213202789
45,18,611.0043213202789
18,59,798.1634435284233
59,18,798.1634435284233
23,10,1075.0302823991392
10,23,1075.0302823991392
23,29,254.621667247101
29,23,254.621667247101
23,19,1491.0490258913942
19,23,1491.0490258913942
23,18,633.8317706863895
18,23,633.8317706863895
23,27,859.4744502391073
27,23,859.4744502391073
23,37,724.7992924340954
37,23,724.7992924340954
23,45,945.5774248515364
45,23,945.5774248515364
23,48,1273.3045508911332
48,23,1273.3045508911332
23,55,1431.5415784945283
55,23,1431.5415784945283
23,59,738.751788867583
59,23,738.75178886758
27,10,1480.851359077699
10,27,1480.851359077699
27,7,1227.596634842019
7,27,1227.596634842019
27,29,605.0789698082275
29,27,605.0789698082275
27,17,1242.1414864389747
17,27,1242.1414864389747
27,18,1143.251978466041
18,27,1143.251978466041
27,23,859.4744502391073
23,27,859.4744502391073
27,37,1486.8567695554532
37,27,1486.8567695554532
27,45,893.5761342709409
45,27,893.5761342709409
27,48,1294.0920442049905
48,27,1294.0920442049905
27,59,405.9813628094184
59,27,405.9813628094184
28,8,1249.1364512957632
8,28,1249.1364512957632
28,13,1094.8146058739776
13,28,1094.8146058739776
28,14,615.324357104412
14,28,615.324357104412
28,38,748.6382082114538
38,28,748.6382082114538
28,50,1329.1781740789852
50,28,1329.1781740789852
28,56,374.4666678972619
56,28,374.4666678972619
31,0,1039.9638006194712
0,31,1039.9638006194712
31,9,732.7703198297029
9,31,732.7703198297029
31,12,521.1127849649046
12,31,521.1127849649046
31,44,928.2792138562006
44,31,928.2792138562006
31,47,432.82742494727813
47,31,432.82742494727813
31,58,882.5109815209589
58,31,882.5109815209589
33,8,1093.5897718904912
8,33,1093.5897718904912
33,11,830.4064922476564
11,33,830.4064922476564
33,13,843.7107146252885
13,33,843.7107146252885
33,14,1320.0860116255599
14,33,1320.0860116255599
33,39,1226.4503906465518
39,33,1226.4503906465518
33,50,1035.1774824902577
50,33,1035.1774824902577
37,10,699.9802469700446
10,37,699.9802469700446
37,12,1467.682813582619
12,37,1467.682813582619
37,29,928.4251543299802
29,37,928.4251543299802
37,19,1241.1457068248744
19,37,1241.1457068248744
37,18,1187.6863672450677
18,37,1187.6863672450677
37,23,724.7992924340954
23,37,724.7992924340954
37,27,1486.8567695554532
27,37,1486.8567695554532
37,48,1202.5927040342701
48,37,1202.5927040342701
37,55,1161.7714386908076
55,37,1161.7714386908076
37,59,1455.0001870455023
59,37,1455.0001870455023
39,8,335.5252025227511
8,39,335.5252025227511
39,11,396.10629954670543
11,39,396.10629954670543
39,7,702.9435097872175
7,39,702.9435097872175
39,13,909.0958136414569
13,39,909.0958136414569
39,14,1095.2961070965189
14,39,1095.2961070965189
39,17,999.0749213670406
17,39,999.0749213670406
39,33,1226.4503906465518
33,39,1226.4503906465518
39,50,301.16761830532613
50,39,301.16761830532613
39,56,1169.2321826723553
56,39,1169.2321826723553
38,14,1155.0162989042205
14,38,1155.0162989042205
38,28,748.6382082114538
28,38,748.6382082114538
38,56,1113.4334894591848
56,38,1113.4334894591848
44,0,1490.3920793809614
0,44,1490.3920793809614
44,9,752.8478314756792
9,44,752.8478314756792
44,12,1434.7161069940435
12,44,1434.7161069940435
44,31,928.2792138562006
31,44,928.2792138562006
44,47,1022.7270695233013
47,44,1022.7270695233013
44,58,75.15679704182926
58,44,75.15679704182926
45,7,1186.0168492152588
7,45,1186.0168492152588
45,29,852.3737184466746
29,45,852.3737184466746
45,17,945.7247289968942
17,45,945.7247289968942
45,18,611.0043213202789
18,45,611.0043213202789
45,23,945.5774248515364
23,45,945.5774248515364
45,27,893.5761342709409
27,45,893.5761342709409
45,59,491.7774210470766
59,45,491.7774210470766
47,0,1469.7684875801865
0,47,1469.7684875801865
47,9,469.9954510126524
9,47,469.9954510126524
47,12,573.2166707263056
12,47,573.2166707263056
47,31,432.82742494727813
31,47,432.82742494727813
47,44,1022.7270695233013
44,47,1022.7270695233013
47,58,955.4907816882578
58,47,955.4907816882578
48,10,591.2793586620011
10,48,591.2793586620011
48,29,1208.9085939169477
29,48,1208.9085939169477
48,19,355.06276849091915
19,48,355.06276849091915
48,23,1273.3045508911332
23,48,1273.3045508911332
48,27,1294.0920442049905
27,48,1294.0920442049905
48,37,1202.5927040342701
37,48,1202.5927040342701
48,55,362.5412627791334
55,48,362.5412627791334
50,8,86.52174550968232
8,50,86.52174550968232
50,11,275.959604474025
11,50,275.959604474025
50,7,996.3211333575085
7,50,996.3211333575085
50,13,608.0714738712743
13,50,608.0714738712743
50,14,829.653189761813
14,50,829.653189761813
50,17,1270.9901481823574
17,50,1270.9901481823574
50,28,1329.1781740789852
28,50,1329.1781740789852
50,33,1035.1774824902577
33,50,1035.1774824902577
50,39,301.16761830532613
39,50,301.16761830532613
50,56,990.6858012892723
56,50,990.6858012892723
55,10,462.87674638767584
10,55,462.87674638767584
55,29,1425.8064654118998
29,55,1425.8064654118998
55,19,81.67668947863076
19,55,81.67668947863076
55,23,1431.5415784945283
23,55,1431.5415784945283
55,37,1161.7714386908076
37,55,1161.7714386908076
55,48,362.5412627791334
48,55,362.5412627791334
56,8,906.8158930748668
8,56,906.8158930748668
56,11,1244.2926748231469
11,56,1244.2926748231469
56,13,891.9780649039968
13,56,891.9780649039968
56,14,463.00861153150043
14,56,463.00861153150043
56,28,374.4666678972619
28,56,374.4666678972619
56,39,1169.2321826723553
39,56,1169.2321826723553
56,38,1113.4334894591848
38,56,1113.4334894591848
56,50,990.6858012892723
50,56,990.6858012892723
58,0,1497.8925315794972
0,58,1497.8925315794972
58,9,677.6918512147788
9,58,677.6918512147788
58,12,1382.1356281600151
12,58,1382.1356281600151
58,31,882.5109815209589
31,58,882.5109815209589
58,44,75.15679704182926
44,58,75.15679704182926
58,47,955.4907816882578
47,58,955.4907816882578
59,7,1167.1477145642282
7,59,1167.1477145642282
59,29,534.2066054366869
29,59,534.2066054366869
59,17,1065.4530875348319
17,59,1065.4530875348319
59,18,798.1634435284233
18,59,798.1634435284233
59,23,738.751788867583
23,59,738.751788867583
59,27,405.9813628094184
27,59,405.9813628094184
59,37,1455.0001870455023
37,59,1455.0001870455023
59,45,491.7774210470766
45,59,491.7774210470766